-------------------------------------------------------------------------------
Test set: com.aeenyy.BubbleSortAppTest
-------------------------------------------------------------------------------
Tests run: 2, Failures: 0, Errors: 0, Skipped: 0, Time elapsed: 0.008 s - in com.aeenyy.BubbleSortAppTest
